%YAML 1.1
%TAG !u! tag:unity3d.com,2011:
--- !u!1045 &1
EditorBuildSettings:
  m_ObjectHideFlags: 0
  serializedVersion: 2
  m_Scenes:
  - enabled: 1
    path: Assets/Scenes/MainMenu.unity
    guid: deb772ff87d85c74fac0eb64cf239eac
  - enabled: 1
    path: Assets/Scenes/MainScene.unity
    guid: 737dcff72fe49234db59c509a934ad46
  m_configObjects: {}
