%YAML 1.1
%TAG !u! tag:unity3d.com,2011:
--- !u!1001 &577466934640650537
PrefabInstance:
  m_ObjectHideFlags: 0
  serializedVersion: 2
  m_Modification:
    m_TransformParent: {fileID: 0}
    m_Modifications:
    - target: {fileID: 5048073913335369289, guid: 17224d09fede06445a348a8d9bc8a5a4,
        type: 3}
      propertyPath: gun
      value: 
      objectReference: {fileID: 11400000, guid: 9e2fc0f7acbf7d844b0c76a7be3c7206,
        type: 2}
    - target: {fileID: 5097677163832027063, guid: 17224d09fede06445a348a8d9bc8a5a4,
        type: 3}
      propertyPath: m_Sprite
      value: 
      objectReference: {fileID: 21300000, guid: 8a993ec95c02cd94ba3fdad94a1ca3fc,
        type: 3}
    - target: {fileID: 5872868448686786408, guid: 17224d09fede06445a348a8d9bc8a5a4,
        type: 3}
      propertyPath: m_Name
      value: FirePickableGun
      objectReference: {fileID: 0}
    - target: {fileID: 5872868448686786414, guid: 17224d09fede06445a348a8d9bc8a5a4,
        type: 3}
      propertyPath: m_LocalPosition.x
      value: 0
      objectReference: {fileID: 0}
    - target: {fileID: 5872868448686786414, guid: 17224d09fede06445a348a8d9bc8a5a4,
        type: 3}
      propertyPath: m_LocalPosition.y
      value: 0
      objectReference: {fileID: 0}
    - target: {fileID: 5872868448686786414, guid: 17224d09fede06445a348a8d9bc8a5a4,
        type: 3}
      propertyPath: m_LocalPosition.z
      value: 0
      objectReference: {fileID: 0}
    - target: {fileID: 5872868448686786414, guid: 17224d09fede06445a348a8d9bc8a5a4,
        type: 3}
      propertyPath: m_LocalRotation.x
      value: 0
      objectReference: {fileID: 0}
    - target: {fileID: 5872868448686786414, guid: 17224d09fede06445a348a8d9bc8a5a4,
        type: 3}
      propertyPath: m_LocalRotation.y
      value: 0
      objectReference: {fileID: 0}
    - target: {fileID: 5872868448686786414, guid: 17224d09fede06445a348a8d9bc8a5a4,
        type: 3}
      propertyPath: m_LocalRotation.z
      value: 0
      objectReference: {fileID: 0}
    - target: {fileID: 5872868448686786414, guid: 17224d09fede06445a348a8d9bc8a5a4,
        type: 3}
      propertyPath: m_LocalRotation.w
      value: 1
      objectReference: {fileID: 0}
    - target: {fileID: 5872868448686786414, guid: 17224d09fede06445a348a8d9bc8a5a4,
        type: 3}
      propertyPath: m_RootOrder
      value: 0
      objectReference: {fileID: 0}
    - target: {fileID: 5872868448686786414, guid: 17224d09fede06445a348a8d9bc8a5a4,
        type: 3}
      propertyPath: m_LocalEulerAnglesHint.x
      value: 0
      objectReference: {fileID: 0}
    - target: {fileID: 5872868448686786414, guid: 17224d09fede06445a348a8d9bc8a5a4,
        type: 3}
      propertyPath: m_LocalEulerAnglesHint.y
      value: 0
      objectReference: {fileID: 0}
    - target: {fileID: 5872868448686786414, guid: 17224d09fede06445a348a8d9bc8a5a4,
        type: 3}
      propertyPath: m_LocalEulerAnglesHint.z
      value: 0
      objectReference: {fileID: 0}
    m_RemovedComponents: []
  m_SourcePrefab: {fileID: 100100000, guid: 17224d09fede06445a348a8d9bc8a5a4, type: 3}
