%YAML 1.1
%TAG !u! tag:unity3d.com,2011:
--- !u!114 &11400000
MonoBehaviour:
  m_ObjectHideFlags: 0
  m_CorrespondingSourceObject: {fileID: 0}
  m_PrefabInstance: {fileID: 0}
  m_PrefabAsset: {fileID: 0}
  m_GameObject: {fileID: 0}
  m_Enabled: 1
  m_EditorHideFlags: 0
  m_Script: {fileID: 11500000, guid: 45936568b1263c444b45feb985a00e15, type: 3}
  m_Name: SimpleGun
  m_EditorClassIdentifier: 
  image: {fileID: 21300000, guid: c82d230afd52a954891ce7bc87c20e32, type: 3}
  bulletPrefab: {fileID: 615509884696065235, guid: 2048881336891c443b657aeed167e0f0,
    type: 3}
  cooldownTime: 0.5
