%YAML 1.1
%TAG !u! tag:unity3d.com,2011:
--- !u!114 &11400000
MonoBehaviour:
  m_ObjectHideFlags: 0
  m_CorrespondingSourceObject: {fileID: 0}
  m_PrefabInstance: {fileID: 0}
  m_PrefabAsset: {fileID: 0}
  m_GameObject: {fileID: 0}
  m_Enabled: 1
  m_EditorHideFlags: 0
  m_Script: {fileID: 11500000, guid: bdb3e88b5a54bd64daf9a9332475377e, type: 3}
  m_Name: BigWeaponObstacleTile
  m_EditorClassIdentifier: 
  obstacleType: 1
  tilePrefab: {fileID: 254578055744960957, guid: 4f143f1e9f456a045a3c4fc8946e1a57,
    type: 3}
  strength: 1
